// Jest Snapshot v1, https://goo.gl/fbAQLP

exports[`renders Messages without crashing 1`] = `
<div
  className="sc-bxivhb knRTPg"
>
  <h2>
    ¿Why so shy?
  </h2>
  <h3>
    You haven't started a chat
  </h3>
  <a
    href="/friends"
  >
    Start a chat with your Friends.
  </a>
</div>
`;
